…
# create an object with only non-missing coordinates 
geo_sr_12m <- service_requests_12m %>% 
  # select only the notification number as the unique ID
  select(notification_number, latitude, longitude) %>% 
  # filter out rows with missing geolocation
  filter(!is.na(latitude) & !is.na(longitude))

missing_geo_sr_12m
```

    # A tibble: 212,364 × 2
       notification_number h3_level8_index
       <chr>               <chr>          
     1 000400525315        0              
     2 000400527116        0              
     3 000400528840        0              
     4 000400530412        0              
     5 000400530772        0              
     6 000400535466        0              
     7 000400535474        0              
     8 000400544699        0              
     9 000400544754        0              
    10 000400544931        0              
    # ℹ 212,354 more rows
…
The final step in this section is validation. The chunk below compares
the joined indexes data (`all_indexed`) with the `sr_hex.csv` file that
was provided. An `anti_join` across all variables, indicates a perfect
match by returning an empty dataframe.

``` r
# check against original file to see if they match
measure_file <- read_csv("data/sr_hex.csv")

# display a snippet of the data
measure_file
```

    # A tibble: 941,634 × 16
       notification_number reference_number creation_timestamp  completion_timestamp
       <chr>                          <dbl> <dttm>              <dttm>              
     1 000400583534              9109491785 2020-10-07 04:55:18 2020-10-08 13:36:35 
     2 000400555043              9108995239 2020-07-09 14:08:13 2020-07-14 12:27:01 
     3 000400589145              9109614461 2020-10-27 08:21:59 2020-10-28 15:48:15 
     4 000400538915              9108601346 2020-03-19 04:36:06 2021-03-29 18:34:19 
     5 000400568554                      NA 2020-08-25 07:48:42 2020-08-31 06:41:13 
     6 000400556029              9109002875 2020-07-11 08:34:37 2020-07-21 10:35:53 
     7 000400588369                      NA 2020-10-23 08:33:48 2020-10-26 12:16:49 
     8 000400549080                      NA 2020-06-17 13:46:11 2020-11-24 12:26:09 
     9 000400599701              9109844606 2020-12-04 06:30:50 2020-12-14 10:53:52 
    10 000400569986                      NA 2020-08-28 11:37:53 2020-08-28 14:17:35 
    # ℹ 941,624 more rows
    # ℹ 12 more variables: directorate <chr>, department <chr>, branch <chr>,
    #   section <chr>, code_group <chr>, code <chr>, cause_code_group <chr>,
    #   cause_code <chr>, official_suburb <chr>, latitude <dbl>, longitude <dbl>,
    #   h3_level8_index <chr>
…
